id,title,description,sale price,price,condition,link,availability,image link,brand,gtin,product type,google product category,shipping,custom label 0
1,Audífono amplificador digitales de gran calidad para mejorar la audición,"Ayudas auditivas digitales estéticos y muy discretos. Dispone de un amplificador de hasta 45 dB y es capaz de reducir el ruido de fondo y evitar pititos (cancelador anti feed-back). Además, tiene 4 programas diferentes permitiendo adaptar el sonido según el ambiente en el que se encuentre la persona.","210,60 EUR","390,00 EUR",new,http://www.audioactive.es/24-audifono-digital-elegance.html,in stock,http://www.audioactive.es/373-large_default/audifono-digital-elegance.jpg,Audioactive,6945936702137,Audífonos,5690,ES:::0 EUR,audifonos
2,Audífono amplificador a precios económicos retroauriculares,Soluciones auditivas a precios económicos para sordera. Digital y retroauricular. Ofrece un sonido de alta calidad pudiendo regular diferentes tonos y el propio volumen volviendo a escuhcar sonidos que antes no percibía y así mejorar la pérdida auditiva. Dispone de un amplificador de hasta 40dB y dos programas para regular el sonido según el ambiente.,"82,50 EUR",165 EUR,new,http://www.audioactive.es/95-audifono-digital-barato.html,in stock,http://www.audioactive.es/132-large_default/audifono-digital-barato.jpg,Audioactive,6946972200328,Audífonos,5690,ES:::0 EUR,audifonos
3,Ayuda auditiva audífono 100% Digital para pérdidas auditivas moderadas a severas.,Ayuda auditiva digital muy económico con amplificador digital de hasta 45dB ideal para personas que tienen pérdidas auditivas moderadas a severas. Es un audífono muy discreto que reduce el ruido y los pitidos de fondo permitiendo escuchar con claridad.,"130,00 EUR","260,00 EUR",new,http://www.audioactive.es/96-audifono-digital-economico.html,in stock,http://www.audioactive.es/184-large_default/audifono-digital-economico-discreto.jpg,Audioactive,6945936701871,Audífonos,5690,ES:::0 EUR,audifonos
4,"Aparatos para sordos Basic, económico y muy discreto con controlador de volumen.",Aparatos para sordos 100% digitales muy económico y discreto. Con buena relación calidad-precio. Es un audífono ergonómico que se adapta fácilmente a la forma del oído permitiendo que sea un audífono prácticamente imperceptible.,"93,00 EUR","155,00 EUR",new,http://www.audioactive.es/14-audifono-basic-digital.html,in stock,http://www.audioactive.es/131-thickbox_default/audifono-basic-digital.jpg,Audioactive,6946972200342,Audífonos,5690,ES:::0 EUR,audifonos
5,Aparatos para sordera audífono barato e invisibles Intra,"Uno de los aparatos para sordera más baratos que podrás encontrar en Audioactive y en el mercado. Audífono digital intracanal, pequeño, discreto y muy cómodo al adaptarse al canal auditivo. Reduce el ruido y dispone de cancelador feedback que evita la existencia de pitidos de fondo. Además, permite ajustar el volumen según la necesidad de audición.","60,00 EUR","120,00 EUR",new,http://www.audioactive.es/120-audifono-invisible-intra.html,in stock,http://www.audioactive.es/181-large_default/audifono-invisible-intra.jpg,Audioactive,6946972200502,Audífonos,5690,ES:::0 EUR,audifonos
6,Audífono digital para sordos de última tecnología con una calidad de sonido y amplificación excelentes,Las ayudas auditivas para sordos VIP tienen amplias prestaciones como el reductor de ruido o la función de detección de habla. Dispone de una amplificación de 45 dB . Se trata de un sonotone ideal para quienes tienen pérdida de audición media.,"170,00 EUR","340,00 EUR",new,http://www.audioactive.es/122-audifono-precio-vip-online.html,in stock,http://www.audioactive.es/268-large_default/audifono-precio-vip-online.jpg,Audioactive,6943786011102,Audífonos,5690,ES:::0 EUR,audifonos
7,Solución auditiva audífono invisible CIC Pro,"Solución auditiva invisible, tan discreto que nadie se dará cuenta de que lo llevas puesto. Va dentro del oído y Dispone de detección del habla y reductor de ruido.","180,00 EUR","360,00 EUR",new,http://www.audioactive.es/22-audifono-premium-reductor-ruido.html,in stock,http://www.audioactive.es/375-large_default/audifono-invisible-premium-reductor-ruido.jpg,Audioactive,N60305764,Audífonos,5690,ES:::0 EUR,audifonos
8,Solución auditiva audífono Power,"Esta solución auditiva Power, ofrece un sonido de alta calidad, permitiendo además un adecuado control de los tonos graves y agudos, así como del volumen. Solución auditiva con una potente amplificación. El usuario escucha y regula los sonidos a su gusto. Cuenta con avisador de pilas y un pack de pilas de regalo.","160,00 EUR","320,00 EUR",new,http://www.audioactive.es/26-audifono-comfort-calidad-sonido.html,in stock,http://www.audioactive.es/376-large_default/audifono-potente-comfort-calidad-sonido.jpg,Audioactive,6943786045121,Audífonos,5690,ES:::0 EUR,audifonos
9,Teléfono para sordos o personas mayores con señal luminosa y teclas grandes.,"Teléfono fijo compuesto por teclas grandes y un amplificador de 30dB que permite incrementar el sonido para aquellas personas que carecen de audición o padecen sordera. Además, este teléfono dispone de una señal luminosa para llamadas entrantes, tiene regulador de sonido y es compatible con audífonos.","45,50 EUR","70,00 EUR",new,http://www.audioactive.es/10-telefono-mayores-modelo-3.html,in stock,http://www.audioactive.es/350-large_default/telefono-mayores-modelo-3.jpg,Geemarc,3521350002676,Fijos,271,ES:::4.50 EUR,telefonos
10,"Teléfóno fijo ideal para personas mayores, sordas o con escasa visión.","Teléfono fijo compuesto por una pantalla de fácil lectura, teclas grandes y por un fuerte amplificador que llega hasta los 50dB. Es ideal para aquellas personas con pérdidas de audición o escasa visión. Además, tiene funcionalidad de voz, manos libres, y es compatible con la mayorías de audífonos.","84,15 EUR","99,00 EUR",new,http://www.audioactive.es/116-telefono-senior-amplificado.html,in stock,http://www.audioactive.es/164-thickbox_default/telefono-senior-amplificado.jpg,Geemarc,3521350011012,Fijos,271,ES:::0 EUR,telefonos
11,Teléfono fijo con teclas grandes y muy sencillo de usar.,"Teléfono fijo muy económico y sencillo de usar. Teléfono con teclas grandes de fácil lectura que además permite remarcar llamadas con una sóla tecla; además, también se puede ajustar el volumen del sonido del teléfono para poder escuchar mejor.","39,00 EUR","39,00 EUR",new,http://www.audioactive.es/53-telefono-doro-teclas-grandes.html,in stock,http://www.audioactive.es/83-thickbox_default/telefono-doro-teclas-grandes.jpg,Doro,7319770567105,Fijos,271,ES:::4.50 EUR,telefonos
12,Teléfono fijo para mayores con fotos Geemarc,Teléfono fijo para mayores Geemarc con amplificación y teclas grandes. También con teclas con fotos de marcación directa para personas con pérdida de audición o problemas visuales. Tiene un diseño ergonómico y es muy fácil de usar.,"46,75 EUR","55,00 EUR",new,http://www.audioactive.es/124-telefono-fotos-mayores.html,in stock,http://www.audioactive.es/196-large_default/telefono-fotos-mayores.jpg,Geemarc,3521350005233,Fijos,271,ES:::4.50 EUR,telefonos
13,Teléfono con teclas grandes Doro,Teléfono con teclas grandes y pantalla fácil de leer. También dispone de aviso lumínico además de amplificación del timbre entrante y la conversación.,"69,00 EUR","69,00 EUR",new,http://www.audioactive.es/52-telefono-teclas-grandes-amplificado.html,in stock,http://www.audioactive.es/82-large_default/telefono-teclas-grandes-amplificado.jpg,Doro,7322460046828,Fijos,271,ES:::0 EUR,telefonos
14,Teléfonos para sordos Doro con pantalla,"Teléfonos para sordos Doro con pantalla. Incluye un indicador de llamadas visual para aquellas personas con discapacidad auditiva, además de teclas grandes para su fácil manejo. Amplificación de 30dB en conversación y 85 dB en timbre de llamadas .","53,90 EUR","53,90 EUR",new,http://www.audioactive.es/84-doro-312-cs-telefono-fijo-con-pantalla.html,in stock,http://www.audioactive.es/105-large_default/doro-312-cs-telefono-fijo-con-pantalla.jpg,Doro,7322460056414,Fijos,271,ES:::4.50 EUR,telefonos
15,Teléfono Doro para personas mayores,Teléfono Doro para personas mayores con marcación fácil gracias al teclado claro y espacioso. Memorias con foto. Compatible con audífonos.,"59,00 EUR","59,00 EUR",new,http://www.audioactive.es/86-telefono-doro-fotos.html,in stock,http://www.audioactive.es/110-large_default/telefono-doro-fotos.jpg,Doro,7322460046286,Fijos,271,ES:::4.50 EUR,telefonos
16,Teléfonos fijos para mayores con teclas grandes y teclas con fotos de marcación directa,Regala estos teléfonos fijos para mayores con teclas grandes y marcación directa con teclas con fotos. Ideal para personas con pérdidas de audición y problemas visuales. Tiene un diseño ergonómico y es muy fácil de usar.,"46,75 EUR","55,00 EUR",new,http://www.audioactive.es/124-telefono-fotos-mayores.html,in stock,http://www.audioactive.es/196-large_default/telefono-fotos-mayores.jpg,Photophone,0521350005233,Fijos,271,ES:::4.50 EUR,telefonos
17,Teléfono móvil con teclas grandes y de fácil uso.,"Teléfono móvil especial para personas mayores o con pérdidas auditivas de uso muy sencillo al estar compuesto de teclas grandes, siendo una de ellas especial para emergencias. Además, dispone de un amplificador de conversación de hasta 24dB para poder escuchar de una forma clara.","107,10 EUR","119,00 EUR",new,http://www.audioactive.es/90-telefono-movil-powertel-m6700.html,in stock,http://www.audioactive.es/116-large_default/telefono-movil-powertel-m6700.jpg,Amplicomms,4250711904173,Teléfonos móviles,267,ES:::0 EUR,moviles
18,Teléfono móvil muy sencillo de usar e ideal para personas mayores.,"Teléfono móvil de fácil manejo especial para personas mayores o con pérdidas auditivas. Dispone de teclas grandes que permiten hacer una marcación más sencilla y una tecla especial para emergencia SOS. Además, tiene un timbre de llamada entrante de 90dB y un potente ampificador. Este teléfono dispone de Bluetooth y es compatible con audífonos.","111,75 EUR","149,00 EUR",new,http://www.audioactive.es/20-telefono-movil-powertel-m7000.html,in stock,http://www.audioactive.es/114-large_default/telefono-movil-powertel-m7000.jpg,Amplicomms,04260010904074,Teléfonos móviles,267,ES:::0 EUR,moviles
19,Teléfono móvil fácil uso libre,"Teléfono móvil de teclas grandes y muy fácil uso ideal para personas con dificultades visuales o propias de la edad, disponde de botón SOS así como una pantalla y teclado de fácil visualización.","42,00 EUR","42,00 EUR",new,http://www.audioactive.es/128-telefono-movil-facil-uso-sl.html,in stock,http://www.audioactive.es/227-large_default/telefono-movil-facil-uso-sl.jpg,Beafon,9120042771285,Teléfonos móviles,267,ES:::4.50 EUR,moviles
20,Teléfonos móviles Doro,"Teléfonos móviles de la marca Doro muy sencillos de usar, hacen que su uso sea muy cómodo y tiene una excelente calidad de sonido.","44,99 EUR","44,99 EUR",new,http://www.audioactive.es/132-telefono-movil-doro-508.html,in stock,http://www.audioactive.es/258-large_default/telefono-movil-doro-508.jpg,Doro,9120042771285,Teléfonos móviles,267,ES:::4.50 EUR,moviles
21,Teléfono móvil Doro 612,"Teléfono móvil Doro 612. Con gran pantalla para su fácil manejo, muy sencillo de utilizar podrás. Coge llamadas o finalízalas tan sólo con abrir o cerrar la tapa del teléfono.","112,00 EUR","112,00 EUR",new,http://www.audioactive.es/42-telefono-movil-doro-612.html,in stock,http://www.audioactive.es/70-large_default/telefono-movil-doro-612.jpg,Doro,7322460061029,Teléfonos móviles,267,ES:::0 EUR,moviles
22,Doro Phone Easy 613,"Doro Phone Easy 613 es un teléfono de gran calidad y elegancia, diseño resistente y plegable, dirigido especialmente a las personas mayores que buscan diseño, calidad y gran funcionalidad a la vez que un uso sencillo y claro. Compatible con audífonos.","109,00 EUR","109,00 EUR",new,http://www.audioactive.es/93-telefono-movil-doro-phone-easy-613-.html,in stock,http://www.audioactive.es/120-large_default/telefono-movil-doro-phone-easy-613-.jpg,Doro,7322460065645,Teléfonos móviles,267,ES:::0 EUR,moviles
23,Doro Secure 580 IUP,"Doro Secure 580 IUP es tu solución si está buscando un teléfono simple, que en situaciones críticas (caída, aislamiento, inmovilidad) avise a alguien. Además este móvil es a prueba de agua y con batería de larga duración, cuenta además con un sistema de localización GPS que permite saber dónde se encuentra.","189,00 EUR","189,00 EUR",new,http://www.audioactive.es/94-telefono-movil-doro-secure-580-.html,in stock,http://www.audioactive.es/122-large_default/telefono-movil-doro-secure-580-.jpg,Doro,7322460065201,Teléfonos móviles,267,ES:::0 EUR,moviles
24,Auricular Sennheiser Set 840 TV para escuchar la televisión.,Auricular inalámbrico para televisión ideal para personas con pérdidas auditivas o sordas. Este auricular ofrece un sonido de gran calidad y además permite ajustar el volumen según la necesidad auditiva pudiendo escuchar con claridad. Al ser inalámbrico puede usarse hasta un rango de 100 metros sin perder la señal.,"238,70 EUR","310,00 EUR",new,http://www.audioactive.es/18-auriculares-sennheiser-set-840tv.html,in stock,http://www.audioactive.es/75-large_default/auriculares-sennheiser-set-840tv.jpg,Sennheiser,4044156017389,Auriculares,505771,ES:::0 EUR,auriculares
25,Cascos Sennheiser Set 830 TV,"Excepcional modelo de cascos Sennheiser Set 830 TV de tipo inalámbrico con máxima calidad de sonido. No te pierdas nada de tu programa favorito. Ideal para problemas de sordera dispone de énfasis especial de respuesta en agudos. Auriculares sin necesidad de cables. No dejes pasar la oportunidad de regalar estos auriculares, con los que escuchar el televisor o la radio mejor que nunca.","200,00 EUR","250,00 EUR",new,http://www.audioactive.es/16-cascos-sennheiser-set-830tv-sordos.html,in stock,http://www.audioactive.es/76-large_default/cascos-sennheiser-set-830tv.jpg,Sennheiser,4044156017327,Auriculares,505771,ES:::0 EUR,auriculares
26,Auriculares para sordos inhalámbricos,Auriculares para sordos inhalámbircos para oír la televisión. Funcionan sin cables. Recomendados para personas con problemas auditivos debido a su gran amplificación.,"99,20 EUR","120,00 EUR",new,http://www.audioactive.es/126-auricular-tv-cl7100.html,in stock,http://www.audioactive.es/210-large_default/auricular-tv-cl7100.jpg,Geemarc,3521350007268,Auriculares,505771,ES:::0 EUR,auriculares
27,Despertador para sordos con volumen alto,"Fíjate en este despertador especial para sordos con volumen alto. Ofrece aviso luminoso, acústico y sistema vibrador. Gracias a él va a ser imposible que no despiertes por las mañanas.","52,5 EUR","75,00 EUR",new,http://www.audioactive.es/46-despertador-volumen-alto.html,in stock,http://www.audioactive.es/348-large_default/despertador-volumen-alto.jpg,Geemarc,"3521350006544
",Despertadores,4546,ES:::0 EUR,despertadores
28,Teléfono para personas con pérdidas auditivas o de visión.,"Teléfono fijo especial para sordera constituido por un potente amplificador de 40dB. Dispone de teclas grandes que permiten una marcación sencilla, también de una fuerte señal luminosa de llamadas entrantes y un timbre de sonido de teléfono que llega hasta los 90dB.","66,75 EUR","89,00 EUR",new,http://www.audioactive.es/115-telefono-fijo-amplipower-40.html,in stock,http://www.audioactive.es/158-large_default/telefono-fijo-amplipower-40.jpg,Geemarc,3521350010428,Fijos,271,ES:::0 EUR,telefonos
29,Auriculares inalámbricos para oir la television Geemarc,"Auriculares inalambricos con amplificación extra para oir mejor la televisión u otra fuente de sonido , especialmente indicado para personas con problemas auditivos o que padecen sordera.","134,1 EUR","134,10 EUR",new,http://www.audioactive.es/123-auricular-tv-audicion.html,in stock,http://www.audioactive.es/193-large_default/auricular-tv-audicion.jpg,Geemarc,3521350007268,Auriculares,505771,ES:::0 EUR,auriculares
30,Auriculares Sennheiser Set 50 TV para la televisión,"Auriculares de la marca Sennheiser de excelente calidad d sonido ideal para personas con pérdida de audición a un precio económico,funcionan sin cables por infrarrojos","125,00 EUR","125,00 EUR",new,http://www.audioactive.es/97-auriculares-tv-set-amplificador.html,in stock,http://www.audioactive.es/126-large_default/auriculares-tv-set-amplificador.jpg,Sennheiser,4044156017167,Auriculares,505771,ES:::0 EUR,auriculares
31,Auriculares 7310 Geemarc sin cables para la televisión,Auriculares Geemarc de excelentes prestaciones funcionan sin cables y son muy ligeros por lo que son ideales para personas mayores con problemas auditivos o pérdida de audición de distintos grados ya que poseen amplificación específica para estos casos,"130,00 EUR","130,00 EUR",new,http://www.audioactive.es/146-auricular-tv-geemarc.html,in stock,http://www.audioactive.es/304-large_default/auricular-tv-geemarc.jpg,Geemarc,3521350010503,Auriculares,505771,ES:::0 EUR,auriculares
32,Auricular amplificador Sennheiser Set 900,Auricular sin cables para personas con sordera o problemas auditivos amplifica la televisión o cualquier fuente de sonido y además dispone de un micrófono que sirve como amplificador auditivo para utilizarlo en el hogar,"349,00 EUR","349,00EUR",new,http://www.audioactive.es/60-sennheiser-set-900.html,in stock,http://www.audioactive.es/91-large_default/sennheiser-set-900.jpg,Sennheiser,4044156017426,Auriculares,505771,ES:::0 EUR,auriculares
33,Auricular sin cables IS 410 Sennheiser,Auriculares sin cables funcionan por infrarrojos para escuchar mejor la televisión u otra fuente de sonido dispone de amplificación hasta 125 dB ideal para personas mayores o con problemas auditivos,"170,00 EUR","170,00 EUR",new,http://www.audioactive.es/145-auriculares-inalambricos-sennheiser.html,in stock,http://www.audioactive.es/302-large_default/auriculares-inalambricos-sennheiser.jpg,Sennheiser,4044156017198,Auriculares,505771,ES:::0 EUR,auriculares
34,Auriculares amplificador televisión Amplicomms,Auriculares de la marca Amplicomms amplificador auditivo de la televisión o cualquier fuente de sonido funciona sin cables y por tecnología FM lo que hace que tenga una calidad de sonido excelente con amplificación para personas con pérdida de audición o sordera,"210,00 EUR","210,00 EUR",new,http://www.audioactive.es/142-auriculares-amplificador-inalambricos-tv.html,in stock,http://www.audioactive.es/282-large_default/auriculares-amplificador-inalambricos-tv.jpg,Amplicomms,4250711903930,Auriculares,505771,ES:::0 EUR,auriculares
35,Despertador de viaje Geemarc con pantallas grande y vibración,"Despertador de viaje para personas con problemas auditivos o visuales que dispone de pantalla grande , luz extra fuerte , vibración para colocar debajo de la almohada así como amplificación pensada para personas sordas","48,00 EUR","48,00 EUR",new,http://www.audioactive.es/137-despertador-de-viaje-con-vibracion.html,in stock,http://www.audioactive.es/272-large_default/despertador-de-viaje-con-vibracion.jpg,Geemarc,3521350007794,Despertadores,4546,ES:::4.50 EUR,despertadores
36,Despertador de viaje Amplicomms para personas con sordera,"Despertador de viaje pequeño de la marca Amplicomms con amplificación extra fuerte , vibreción extra fuerte y señales luminosas para personas mayores o personas con pérdida de audición o problemas visuales","49,00 EUR","49,00 EUR",new,http://www.audioactive.es/44-despertador-de-viaje-tcl210.html,in stock,http://www.audioactive.es/72-large_default/despertador-de-viaje-tcl210.jpg,Amplicomms,4260010595057,Despertadores,4546,ES:::4.50 EUR,despertadores
37,Despertador pequeño Geemarc ,Despertador pequeño para llevar en viajes muy cómodo de utilizar con señales luminosas y vibración para personas con sordera o pérdida de audición,"35,00 EUR","35,00 EUR",new,http://www.audioactive.es/147-despertador-de-viajes-problemas-auditivos.html,in stock,http://www.audioactive.es/307-large_default/despertador-de-viajes-problemas-auditivos.jpg,Geemarc,3521350053012,Despertadores,4546,ES:::4.50 EUR,despertadores
38,Teléfono inalámbrico con fotos y amplificación,"Teléfono Inalámbrico con teclas grandes,fotos y amplificación de la marca Geemar para personas mayores o con problemas auditivos o visuales además es compatible con audífonos","65,00EUR","65,00EUR",new,http://www.audioactive.es/133-telefono-inalambrico-con-fotos.html,in stock,http://www.audioactive.es/261-large_default/telefono-inalambrico-con-fotos.jpg,Geemarc,3521350010312,Telefonos inalámbricos,367,ES:::0 EUR,telefonos
39,Teléfono inalámbrico teclas grandes y amplificación para sordos,"Teléfono inalámbrico con teclas grande,pantalla grande y botones de emergencia , además es compatible con audífonos y dispone de una amplificación extra pensada para personas sordas o con problemas auditivos","99,00 EUR","99,00 EUR",new,http://www.audioactive.es/38-telefono-inalambrico-pantalla-grande.html,in stock,http://www.audioactive.es/66-large_default/telefono-inalambrico-pantalla-grande.jpg,Geemarc,3521350005462,Telefonos inalámbricos,367,ES:::0 EUR,telefonos
40,Teléfono inalámbrico de teclas grandes compatible con audífonos ,"Teléfono inalámbrico de la marca Geemarcde pantalla y teclado grande con amplificación para personas con discapacidad auditiva
","89,00 EUR","89,00 EUR",new,http://www.audioactive.es/134-telefono-inalambrico-geemarc.html,in stock,http://www.audioactive.es/262-large_default/telefono-inalambrico-geemarc.jpg,Geemarc,3521350011081,Telefonos inalámbricos,367,ES:::0 EUR,telefonos
41,Teléfono Doro 110 Inalámbrico compatible con audífonos,"Teléfono inalámbrico de la marca Doro para personas con sordera o pérdida de audición , dispone de teclas grandes y es muy fácil de usar","65,00 EUR","65,00 EUR",new,http://www.audioactive.es/39-telefono-inalambrico-doro-110.html,in stock,http://www.audioactive.es/67-large_default/telefono-inalambrico-doro-110.jpg,Doro,7322460059521,Telefonos inalámbricos,367,ES:::0 EUR,telefonos
42,Teléfono Doro Duo 110 para personas mayores,Teléfono duo pareja de teléfonos inalámbricos de pantalla y teclas grandes compatible con audífonos muy sencillo de usar para personas mayores,"95,00 EUR","95,00 EUR",new,http://www.audioactive.es/87-telefono-inalambrico-duo.html,in stock,http://www.audioactive.es/111-large_default/telefono-inalambrico-duo.jpg,Doro,7322460059552,Teléfonos inalámbricos,367,ES:::0 EUR,telefonos
43,Teléfono fijo con amplificación hasta 60 dB ,"Teléfono fijo con amplificación extra fuerte para pérdidas de audición severas o profundas se trata del teléfono fijo con más amplificación del mercado , además es compatible con audífonos o prótesis auditivas y dispone de teclas grandes,marcado SOS y otras prestaciones para personas mayores","110,00 EUR","110,00 EUR",new,http://www.audioactive.es/149-telefono-fijo-perdida-audicion-severa-profunda.html,in stock,http://www.audioactive.es/311-large_default/telefono-fijo-perdida-audicion-severa-profunda.jpg,Amplicomms,4250711904401,Fijos,271,ES:::0EUR,telefonos
44,Teléfono fijo compatible con audífonos o sonotone,"Teléfono fijo de la marca Amplicomms para personas con problemas auditivos o visuales ya que dispone de teclas grandes , avisador luminoso de llamadas entrantes, amplificación de la conversación para personas con sordera y otras prestaciones para personas mayores","60,00 EUR","60,00 EUR",new,http://www.audioactive.es/148-telefono-fijo-teclas-grandes.html,in stock,http://www.audioactive.es/310-large_default/telefono-fijo-teclas-grandes.jpg,Amplicomms,4250711904722,Fijos,271,ES:::0 EUR,telefonos
45,Sistema de limpieza y secado de audífonos o sonotone ,"Limpieza de audífonos , se trata de un sistema de secado y desinfección de sus prótesis auditivas para su correcto funcionamiento, con ello conseguirá mantener más limpios sus audífonos y alargar la vida útil de los mismos","129,00 EUR","129,00 EUR",new,http://www.audioactive.es/61-dry-store-audifono-limpieza.html,in stock,http://www.audioactive.es/93-large_default/dry-store-audifono-limpieza.jpg,Dry&Store,810323002229,Limpieza audífonos,5690,ES:::0 EUR,lim`pieza
46,Limpie sus audífonos o amplificadores auditivos de la manera más eficaz,"Sirve para el secado y quitar la humedad de sus audífonos alargando la vida de los sonotone , se trata de un sistema de mantenimiento ideal","79,00 EUR","79,00 EUR",new,http://www.audioactive.es/140-zephyr-limpieza-audifonos.html,in stock,http://www.audioactive.es/279-large_default/zephyr-limpieza-audifonos.jpg,Dry&Store,79464510950,Limpieza audífonos,5690,ES::: 0 EUR,limpieza
47,"Sistema de secado ,limpeza y desinfección de audífonos","Sistema de mantenimiento muy completo , sirve para limpiar su sonotone o amplificador auditivo diariamente y eliminar humedad y suciedad del aparato así como de sus componentes internos","90,00 EUR","90,00 EUR",new,http://www.audioactive.es/49-avantgarde-dry-box-sonotone.html,in stock,http://www.audioactive.es/256-large_default/avantgarde-dry-box-sonotone.jpg,Hadeo,4250185541157,Limpieza audífonos,5690,ES::: 0 EUR,limpieza
48,Manteniemiento y limpieza de sus audífonod digitales,Sistema de limpieza y mantenimiento de sus aparatos auditios o sonotone de excelente calidad y muy fácil de usar,"84,00 EUR","84,00 EUR",new,http://www.audioactive.es/48-limpieza-sonotone-dry-box.html,in stock,http://www.audioactive.es/254-large_default/limpieza-sonotone-dry-box.jpg,Hadeo,4250185541140,Limpieza audífonos,5690,ES:::0 EUR,limpieza
49,Teléfono inalámbrico con amplificación Geemarc,Teléfono inalámbrico con amplificación de la conversación para personas con sordera o problemas auditivos y de fácil manejo para personas mayores o con problemas visuales,"60,00 EUR","60,00 EUR",new,http://www.audioactive.es/150-telefono-inalambrico-amplificacion-sordera.html,in stock,http://www.audioactive.es/313-large_default/telefono-inalambrico-amplificacion-sordera.jpg,Geemarc,3521350005240,Telefonos inalámbricos,367,ES:::0 EUR,telefonos
50,Caja de pilas para audífono 10 Rayovac,"Caja de pilas 10 de la marca Rayovac. La caja incluye 60 pilas. Precio por pila 0,33€.","19,00 EUR","19,00 EUR",new,http://www.audioactive.es/27-caja-pila-audifono-10-rayovac.html,in stock,http://www.audioactive.es/51-large_default/caja-pila-audifono-10-rayovac.jpg,Royovac,50240463,Pilas y baterías,276,ES:::4.50 EUR,pilas
51,Pilas para sonotone Rayovac 13,"Consigue la caja de pilas Rayovac 13 de alta calidad. Un artículo con 60 unidades (0,33€ por pila), los accesorios imprescindibles para el buen funcionamiento de nuestros audífonos.","19,00 EUR","19,00 EUR",new,http://www.audioactive.es/29-caja-pilas-sonotone-rayovac-13.html,in stock,http://www.audioactive.es/53-large_default/caja-pilas-sonotone-rayovac-13.jpg,Royovac,50240470,Pilas y baterías,276,ES:::4.50 EUR,pilas
52,Pilas para audífonos Rayovac 312,"Aquí tienes la caja de pilas Rayovac 312 extra, de 60 unidades. Las apropiadas para audífonos de máxima calidad, a un excelente precio por pila de 0,33€.","19,00 EUR","19,00 EUR",new,http://www.audioactive.es/28-caja-pilas-audifono-rayovac-312.html,in stock,http://www.audioactive.es/52-large_default/caja-pilas-audifono-rayovac-312.jpg,Royovac,50240487,Pilas y baterías,276,ES:::4.50 EUR,pilas
53,Caja de pilas para sonotones Rayovac 675,"Encuentra las pilas para sonotone Rayovac 675 en esta caja de 60 unidades, y dispondrá de la batería suficiente para audífonos con hasta un año de duración aproximadamente. Un artículo imprescindible para que funcione de forma óptima este dispositivo con el que oír perfectamente.","19,00 EUR","19,00 EUR",new,http://www.audioactive.es/30-caja-pilas-audifonos-rayovac-675.html,in stock,http://www.audioactive.es/54-large_default/caja-pilas-audifonos-rayovac-675.jpg,Royovac,50240494,Pilas y baterías,276,ES:::4.50 EUR,pilas
54,Pilas de audífono o aparatos auditivos Duracell 312,"Caja de pilas para ayudas auditivas de la marca Duracell a un precio muy económico, conseguirá que su amplificador auditivo funcione más días","22,00 EUR","22,00 EUR",new,http://www.audioactive.es/107-caja-pilas-audifonos-duracell312.html,in stock,http://www.audioactive.es/148-large_default/caja-pilas-audifonos-duracell312.jpg,Duracell,4043752174748,Pilas y baterías,276,"ES:::4,50 EUR",pilas
55,Pilas o baterias de audífonos Duracell 13,Caja de pilas para prótesis auditivas o amplificadores auditivos de la marca Duracell a un precio muy barato,"22,00EUR","22,00 EUR",new,http://www.audioactive.es/109-caja-pilas-audifonos-duracell-13.html,in stock,http://www.audioactive.es/150-large_default/caja-pilas-audifonos-duracell-13.jpg,Duracell,4043752174694,Pilas y baterías,276,"ES:::4,50 EUR",pilas
56,Pilas para audífonos o prótesis auditivas Duracell10,Pilas para sus audífonos o sonotone al mejor precio en nuestra tienda online para problemas auditivos,"22,00EUR","22,00 EUR",new,http://www.audioactive.es/108-caja-pilas-audifonos-duracell-10.html,in stock,http://www.audioactive.es/149-large_default/caja-pilas-audifonos-duracell-10.jpg,Duracell,4043752174793,Pilas y baterías,276,"ES:::4,50 EUR",pilas
55,Teléfono móvil para personas mayores Geemarc,"Teléfono móvil para personas mayores o con pérdida auditiva compatible con audífono,dispone de teclas grandes así como función SOS de llamada de emergencia con una amplificació´n de la conversación de hasta 35 dB","89,00EUR","89,00 EUR",new,http://www.audioactive.es/151-telefono-movil-cl8360.html,in stock,http://www.audioactive.es/318-large_default/telefono-movil-cl8360.jpg,Geemarc,3521350011203,Telefonos móviles,267,ES:::0 EUR,telefonos
56,Reloj de pulsera con vibración para personas con problemas auditivos,"Reloj de pulsera con vibración para personas con pérdida de audición o personas que lo necesiten para recordar cosas, pensado para personas mayores","95,00 EUR","95,00 EUR",new,http://www.audioactive.es/152-reloj-de-pulsera-con-vibracion.html,in stock,http://www.audioactive.es/322-large_default/reloj-de-pulsera-con-vibracion.jpg,Geemarc,3521350006940,Despertadores,4546,ES:::0 EUR,despertadores
57,Auricular para usuarios de audífonos SET 840 S,"Auricular amplificador de la marca Sennheiser para usuarios de audífonos o prótesis auditivas que harán que puedan oír la televisión de forma más cómoda , ideal para personas usuarias de audífonos con posición T","310,00 EUR","310,00EUR",new,http://www.audioactive.es/59-sennheiser-set-840tv-s-audifono-amplificador.html,in stock,http://www.audioactive.es/89-large_default/sennheiser-set-840tv-s-audifono-amplificador.jpg,SEnnheiser,4044156017365,Auriculares,505771,ES:::0EUR,auriculares
58,Amplificador TV para usuarios de audífonos Set 830 S,Amplificador para la televisión para usuarios de audífonos o sonotone siempre que el audífono disponga de posición T,"290,00EUR","290,00 EUR",new,http://www.audioactive.es/19-auriculares-sennheiser-830-s-audifono.html,in stock,http://www.audioactive.es/77-large_default/auriculares-sennheiser-830-s-audifono.jpg,SEnnheiser,4044156017303,Auriculares,505771,ES:::0 EUR,auriculares
59,Amplificador auditivo  a un precio inferior que audífonos convencionales,"Amplificador auditivo inteligente con excelente calidad de sonido ,de diseño moderno y muy ligero que pasará desapercibido con 2 programas para diferentes entornos y una calidad de sonido comparable a audífonos convencionales todo ello a un precio mucho más económico","149,00 EUR","149,00 EUR",new,http://www.audioactive.es/154-amplificador-de-sonido-digital-inteligente.html,in stock,http://www.audioactive.es/337-large_default/amplificador-de-sonido-digital-inteligente.jpg,Merry,4718037190071,Audifonos,5690,ES:::0 EUR,audifonos
60,Auricular RI 830 Sennheiser para personas con pérdida de audición,"Auricular sin cables amplificador auditivo de la televisión requiere tener la base ,pensado para personas con problemas auditivos o sordera",,"149,00 EUR",new,http://www.audioactive.es/157-auricular-ri830.html,in stock,"http://www.audioactive.es/367-large_default/auricular-ri830.jpg
",SEnnheiser,4044156017464,Auriculares,505771,ES:::0 EUR,auriculares
61,Auricular RR 840 Sennheiser para la televisión ideal para personas con sordera,Auricular amplificador auditivo de la televisión necesita que previemente se tenga la base del set 840 tv ,,"160,00 EUR",new,"http://www.audioactive.es/156-auricular-sin-base-840-.html
",in stock,http://www.audioactive.es/366-large_default/auricular-sin-base-840-.jpg,Sennheiser,4044156017518,Auriculares,505711,ES:::0EUR,auriculares
62,Teléfono Duo  Amplidect 355 de la marca Geemarc,"Duo que se compone de un teléfono fijo y uno inalámbrico para personas sordas o con problemas asociados a la edad, teléfono de teclas grandes,amplificación extra ,compatible con audífonos y con pantalla ideal para peronas mayores ",,,,http://www.audioactive.es/155-duo-fijo-inalambrico-.html,in stock,http://www.audioactive.es/362-large_default/duo-fijo-inalambrico-.jpg,Geemarc,3521350010251,Fijos,271,ES:::0 EUR,telefonos